id,name
d45c2498-60eb-11e7-907b-a6006ad3dba0,Academic Fall – Online Learning
65f49c60-c593-4ec3-a2af-2dabdee12bac,Academic Fall – Residential
d45c2880-60eb-11e7-907b-a6006ad3dba0,Academic Spring – Online Learning
85a83646-27bf-4280-8d03-51a266b0d50d,Academic Spring – Residential
911891c2-b14d-4f81-a33d-c99831132c8b,Academic Summer – Online Learning
e522613f-2b28-45e4-a2e1-c420bc75d85f,Academic Summer – Residential
efacf2b9-8e73-4fb2-b628-e6b3e5ab3ab8,Admitted Students - Online Learning
71cb1150-4a1f-448b-8245-f1549ee5c81b,Admitted Students - Residential
d45c2ace-60eb-11e7-907b-a6006ad3dba0,VLS Events
