vid,uuid,name
place,0c8024a1-51fd-4db4-b31e-a3ec7cd72882,190 Chelsea
place,e2b82ca0-397f-42bd-89e2-f4ad291d1ecc,Abbott House
place,01362418-3a78-11e7-a919-92ebcb67fe33,Abbott House - 1st Floor
place,013625bc-3a78-11e7-a919-92ebcb67fe33,Abbott House - 2nd Floor
place,01357cde-3a78-11e7-a919-92ebcb67fe33,Alumni Office
place,5829b502-0771-4293-981c-6398a2c0bb93,Anderson House
place,01362760-3a78-11e7-a919-92ebcb67fe33,Anderson House - 1st Floor
place,01362c7e-3a78-11e7-a919-92ebcb67fe33,Anderson House - 2nd Floor
place,01357ebe-3a78-11e7-a919-92ebcb67fe33,Barrister's Book Store
place,01358080-3a78-11e7-a919-92ebcb67fe33,Carpenter Field
place,0135824c-3a78-11e7-a919-92ebcb67fe33,Center for Legal Services
place,01358422-3a78-11e7-a919-92ebcb67fe33,Chase Breezeway
place,4a176a5b-6c16-4d49-8fd4-901ead1e1af3,Chase Center
place,01362e72-3a78-11e7-a919-92ebcb67fe33,Chase Center - 2nd Floor
place,01358c60-3a78-11e7-a919-92ebcb67fe33,Chase Computer Lab
place,01358f3a-3a78-11e7-a919-92ebcb67fe33,Chase Loft
place,724d58c6-880e-40c3-bd79-091fa8de4699,Cornell Library
place,01363016-3a78-11e7-a919-92ebcb67fe33,Cornell Library - Campus Level
place,01363be2-3a78-11e7-a919-92ebcb67fe33,Cornell Library - Parking Level
place,0135575e-3a78-11e7-a919-92ebcb67fe33,Cornell Library - Third Floor Faculty Study
place,013590e8-3a78-11e7-a919-92ebcb67fe33,Cornell Library Circ Desk
place,013592b4-3a78-11e7-a919-92ebcb67fe33,Cornell Library Computer Lab
place,01359494-3a78-11e7-a919-92ebcb67fe33,Cornell Library Foyer
place,01359642-3a78-11e7-a919-92ebcb67fe33,Cornell Library Quad
place,0135980e-3a78-11e7-a919-92ebcb67fe33,Cornell Library Steps
place,01359ea8-3a78-11e7-a919-92ebcb67fe33,Cornell Portico
place,0135a0f6-3a78-11e7-a919-92ebcb67fe33,Cornell Seminar
place,0135a2a4-3a78-11e7-a919-92ebcb67fe33,Crossroads
place,36d3da20-2cce-4c4a-8ad8-3bfd90de8248,Curtis House
place,01363e3a-3a78-11e7-a919-92ebcb67fe33,Curtis House - 1st Floor
place,01363fe8-3a78-11e7-a919-92ebcb67fe33,Curtis House - 2nd Floor
place,0135a6c8-3a78-11e7-a919-92ebcb67fe33,Davis House Apartment
place,0135a902-3a78-11e7-a919-92ebcb67fe33,Dean's Office
place,a8469ccb-163d-4690-a9bd-40e5a5356b26,Dearing House
place,0136416e-3a78-11e7-a919-92ebcb67fe33,Dearing House - 1st Floor
place,01364736-3a78-11e7-a919-92ebcb67fe33,Dearing House - 2nd Floor
place,0135aaf6-3a78-11e7-a919-92ebcb67fe33,Debevoise 101
place,0135acb8-3a78-11e7-a919-92ebcb67fe33,Debevoise Back Lawn
place,0135b3f2-3a78-11e7-a919-92ebcb67fe33,Debevoise Belfry
place,0135b65e-3a78-11e7-a919-92ebcb67fe33,Debevoise Front Lawn
place,ef79e292-2d17-440c-bf37-4f308076b5df,Debevoise Hall
place,0136492a-3a78-11e7-a919-92ebcb67fe33,Debevoise Hall - 2nd Floor
place,01364ad8-3a78-11e7-a919-92ebcb67fe33,Debevoise Hall - 3rd Floor
place,0135b80c-3a78-11e7-a919-92ebcb67fe33,Debevoise Hall Front Steps
place,9cff6b05-3e91-4127-ae7d-233a87f7b563,Eaton House
place,01364c72-3a78-11e7-a919-92ebcb67fe33,Eaton House - 1st Floor
place,01364e20-3a78-11e7-a919-92ebcb67fe33,Eaton House - 2nd Floor
place,b587a71c-a517-4b62-afa2-483be905cec7,Eaton House Barn
place,01365028-3a78-11e7-a919-92ebcb67fe33,Eaton House Barn - 2nd Floor
place,0135ba14-3a78-11e7-a919-92ebcb67fe33,Eaton House Seminar
place,0135bbae-3a78-11e7-a919-92ebcb67fe33,ELC Conf Rm 216
place,0135bf3c-3a78-11e7-a919-92ebcb67fe33,Fitness Center - Fitness 105
place,0135c108-3a78-11e7-a919-92ebcb67fe33,Hoff Lounge
place,d390c120-21ac-49b8-8c95-89e672dbaea9,Jacobs House
place,0136558c-3a78-11e7-a919-92ebcb67fe33,Jacobs House - 1st Floor
place,01365776-3a78-11e7-a919-92ebcb67fe33,Jacobs House - 2nd Floor
place,01365adc-3a78-11e7-a919-92ebcb67fe33,Jacobs House - 3rd Floor
place,0135c7d4-3a78-11e7-a919-92ebcb67fe33,Jacobs House Apartment
place,0135c9f0-3a78-11e7-a919-92ebcb67fe33,Jacobs's Conf Room
place,0135cbb2-3a78-11e7-a919-92ebcb67fe33,Knights Opera House
place,0135cd88-3a78-11e7-a919-92ebcb67fe33,Legal Writing Conf Room
place,64c82e38-c85e-46c2-8411-412fa96ae933,Library
place,01365d02-3a78-11e7-a919-92ebcb67fe33,Library - Campus Level
place,01365eba-3a78-11e7-a919-92ebcb67fe33,Library - Parking Level
place,0135cf4a-3a78-11e7-a919-92ebcb67fe33,Map Room 103
place,0135d134-3a78-11e7-a919-92ebcb67fe33,"Montpelier, VT"
place,0135d846-3a78-11e7-a919-92ebcb67fe33,"New York City, NY"
place,0135db34-3a78-11e7-a919-92ebcb67fe33,Nina Thomas Classroom 102
place,0135dd5a-3a78-11e7-a919-92ebcb67fe33,Oakes 007
place,0135df26-3a78-11e7-a919-92ebcb67fe33,Oakes 012
place,0135e0c0-3a78-11e7-a919-92ebcb67fe33,Oakes 107
place,0135e28c-3a78-11e7-a919-92ebcb67fe33,Oakes 109
place,0135e43a-3a78-11e7-a919-92ebcb67fe33,Oakes 110
place,0135eb10-3a78-11e7-a919-92ebcb67fe33,Oakes 207
place,0135ed72-3a78-11e7-a919-92ebcb67fe33,Oakes 208
place,0135ef34-3a78-11e7-a919-92ebcb67fe33,Oakes 210
place,0135f0e2-3a78-11e7-a919-92ebcb67fe33,Oakes 211
place,0135f29a-3a78-11e7-a919-92ebcb67fe33,Oakes Exhibition Hall
place,6f4e958c-558d-4371-a510-88a69ac7af44,Oakes Hall
place,0136605e-3a78-11e7-a919-92ebcb67fe33,Oakes Hall - 1st Floor
place,0136620c-3a78-11e7-a919-92ebcb67fe33,Oakes Hall - 2nd Floor
place,013667fc-3a78-11e7-a919-92ebcb67fe33,Oakes Hall - Lower Level
place,0135f420-3a78-11e7-a919-92ebcb67fe33,Oakes Hall Parking Lot
place,0135f5ce-3a78-11e7-a919-92ebcb67fe33,Off-Campus
place,d0d2054d-d0b5-4a8f-aeaf-28ab2f296104,Old Schoolhouse
place,013669e6-3a78-11e7-a919-92ebcb67fe33,Old Schoolhouse - 1st Floor
place,01366be4-3a78-11e7-a919-92ebcb67fe33,Old Schoolhouse - 2nd Floor
place,0135fc40-3a78-11e7-a919-92ebcb67fe33,Outdoor Classroom
place,0135fe52-3a78-11e7-a919-92ebcb67fe33,Paine's Beach
place,01362256-3a78-11e7-a919-92ebcb67fe33,Pierece House - 1st Floor
place,5da0c893-3068-419c-9445-ddbcc692ba25,Rogers House
place,01366d9c-3a78-11e7-a919-92ebcb67fe33,Rogers House - 1st Floor
place,01366f5e-3a78-11e7-a919-92ebcb67fe33,Rogers House - 2nd Floor
place,01367148-3a78-11e7-a919-92ebcb67fe33,Rogers House - 3rd Floor
place,0136000a-3a78-11e7-a919-92ebcb67fe33,Rogers House Classroom
place,0136021c-3a78-11e7-a919-92ebcb67fe33,Royalton Acadamy
place,013603de-3a78-11e7-a919-92ebcb67fe33,"Shield's Home, Tunbridge"
place,0136055a-3a78-11e7-a919-92ebcb67fe33,So Ro Cafe
place,01360a96-3a78-11e7-a919-92ebcb67fe33,South Royalton High School Gym
place,01360dca-3a78-11e7-a919-92ebcb67fe33,South Royalton House
place,01360fd2-3a78-11e7-a919-92ebcb67fe33,South Royalton Town Green
place,0136119e-3a78-11e7-a919-92ebcb67fe33,Teachers Conf Rm
place,01361360-3a78-11e7-a919-92ebcb67fe33,Technology Conference Space
place,01361522-3a78-11e7-a919-92ebcb67fe33,The Pitch
place,013616b2-3a78-11e7-a919-92ebcb67fe33,"Washington, DC"
place,01361cde-3a78-11e7-a919-92ebcb67fe33,Waterman Committee
place,19d712b4-6017-4cb7-8515-50867edb865c,Waterman Hall
place,0136730a-3a78-11e7-a919-92ebcb67fe33,Waterman Hall - 1st Floor
place,01367a26-3a78-11e7-a919-92ebcb67fe33,Waterman Hall - 2nd Floor
place,01367c10-3a78-11e7-a919-92ebcb67fe33,Waterman Hall - 3rd Floor
place,01367dc8-3a78-11e7-a919-92ebcb67fe33,Waterman Hall - Basement
place,01361f18-3a78-11e7-a919-92ebcb67fe33,West Campus Lawn
place,013620bc-3a78-11e7-a919-92ebcb67fe33,Yates Common 104
